<?xml version="1.0" encoding="utf-8"?>
<!-- Generator: Adobe Illustrator 20.1.0, SVG Export Plug-In . SVG Version: 6.00 Build 0)  -->
<svg version="1.1" id="Layer_1" xmlns="http://www.w3.org/2000/svg" xmlns:xlink="http://www.w3.org/1999/xlink" x="0px" y="0px"
	 viewBox="0 0 86 24" style="enable-background:new 0 0 86 24;" xml:space="preserve">
<style type="text/css">
	.st0{fill:#8EC53D;}
	.st1{fill:#00AAD1;}
	.st2{fill:#54A1A7;}
	.st3{fill:#FFFFFF;}
</style>
<path class="st0" d="M22,2.1C22,1.5,21.5,1,20.9,1H10.4C9.8,1,9.3,1.5,9.3,2.1s0.5,1.1,1.1,1.1h10.5C21.5,3.2,22,2.7,22,2.1"/>
<path class="st1" d="M8.2,2.1C8.2,1.5,7.7,1,7,1H2C1.4,1,1,1.5,1,2.1s0.4,1.1,1,1.1h5C7.7,3.2,8.2,2.7,8.2,2.1"/>
<path class="st1" d="M18.1,18c0-0.6-0.5-1.1-1.1-1.1h-5c-0.6,0-1.1,0.5-1.1,1.1s0.5,1.1,1.1,1.1h5C17.6,19.1,18.1,18.6,18.1,18"/>
<path class="st1" d="M16.3,6.1c0-0.6-0.5-1.1-1.1-1.1H4.5C3.9,5,3.4,5.5,3.4,6.1s0.5,1.1,1.1,1.1h10.7C15.8,7.2,16.3,6.7,16.3,6.1"
	/>
<path class="st0" d="M25.6,6.1c0-0.6-0.5-1.1-1.1-1.1H22c-0.6,0-1.1,0.5-1.1,1.1s0.5,1.1,1.1,1.1h2.5C25.1,7.2,25.6,6.7,25.6,6.1"/>
<path class="st2" d="M20.7,14c0-0.6-0.5-1.1-1.1-1.1H9.5c-0.6,0-1.2,0.5-1.2,1.1s0.6,1.1,1.2,1.1h10.1C20.2,15.1,20.7,14.6,20.7,14"
	/>
<path class="st2" d="M19.7,6.1c0,0.6-0.5,1.1-1.1,1.1s-1.1-0.5-1.1-1.1S18,5,18.6,5S19.7,5.5,19.7,6.1"/>
<path class="st0" d="M15.6,21.9c0,0.6-0.5,1.1-1.1,1.1s-1.1-0.5-1.1-1.1s0.5-1.1,1.1-1.1S15.6,21.3,15.6,21.9"/>
<path class="st2" d="M28.1,2.1C28.1,1.5,27.6,1,27,1h-2.7c-0.6,0-1.1,0.5-1.1,1.1s0.5,1.1,1.1,1.1H27C27.6,3.2,28.1,2.7,28.1,2.1"/>
<path class="st2" d="M12.7,10.1c0-0.6-0.5-1.1-1.1-1.1H7c-0.6,0-1.1,0.5-1.1,1.1s0.5,1.1,1.1,1.1h4.6C12.2,11.2,12.7,10.7,12.7,10.1
	"/>
<path class="st0" d="M22.1,11.2h-7.2c-0.6,0-1.1-0.5-1.1-1.1S14.3,9,14.9,9h7.2c0.6,0,1.1,0.5,1.1,1.1S22.7,11.2,22.1,11.2"/>
<g>
	<path class="st3" d="M37.8,5h-2.2L34,14.8l0,0L32.3,5h-2.2L33,19.1h1.8L37.8,5L37.8,5z M39.8,19.1h6.1v-2h-4.1V13h3.6v-2h-3.6V6.9
		h4.1V5h-6.1V19.1L39.8,19.1z"/>
	<path class="st3" d="M50.1,6.9h1.1c0.4,0,0.7,0,0.9,0.1s0.4,0.2,0.5,0.4c0.1,0.2,0.2,0.4,0.3,0.7C52.9,8.4,53,8.7,53,9
		c0,0.4,0,0.7-0.1,0.9c0,0.3-0.1,0.5-0.2,0.7c-0.1,0.2-0.3,0.3-0.5,0.4c-0.2,0.1-0.5,0.1-0.9,0.1h-1.2L50.1,6.9L50.1,6.9z M48,19.1
		h2.1v-6h1.2l1.9,6h2.2l-2.2-6.5c0.7-0.4,1.1-0.8,1.4-1.4c0.3-0.6,0.4-1.3,0.4-2.1C55,6.3,53.8,5,51.4,5H48V19.1L48,19.1z M63.6,8
		c0-0.4-0.1-0.8-0.2-1.2c-0.2-0.4-0.4-0.7-0.7-1S62,5.3,61.6,5.1c-0.4-0.2-0.9-0.3-1.4-0.3c-0.6,0-1.1,0.1-1.6,0.3
		c-0.4,0.2-0.8,0.5-1.1,0.8S57,6.7,56.8,7.1c-0.1,0.5-0.2,1-0.2,1.5c0,0.9,0.2,1.6,0.5,2.2c0.3,0.6,0.9,1.1,1.8,1.4l1.5,0.6
		c0.3,0.1,0.5,0.2,0.6,0.3c0.2,0.1,0.3,0.2,0.4,0.4c0.1,0.1,0.1,0.3,0.2,0.6c0,0.2,0,0.5,0,0.9c0,0.3,0,0.6,0,0.9s-0.1,0.5-0.2,0.7
		c-0.1,0.2-0.2,0.3-0.4,0.4s-0.5,0.1-0.8,0.1c-0.5,0-0.9-0.1-1.1-0.4c-0.2-0.3-0.3-0.6-0.3-1v-0.6h-2.1v0.8c0,0.5,0.1,0.9,0.3,1.3
		s0.4,0.8,0.7,1.1c0.3,0.3,0.7,0.5,1.1,0.7c0.4,0.2,0.9,0.3,1.4,0.3c0.7,0,1.2-0.1,1.7-0.3c0.5-0.2,0.8-0.5,1.1-0.9s0.5-0.8,0.6-1.3
		s0.2-1.1,0.2-1.7c0-0.5,0-1-0.1-1.4s-0.2-0.8-0.3-1.1c-0.2-0.3-0.4-0.6-0.7-0.8s-0.7-0.4-1.1-0.6L60,10.6c-0.3-0.1-0.5-0.2-0.6-0.3
		c-0.2-0.1-0.3-0.2-0.4-0.4c-0.1-0.1-0.1-0.3-0.2-0.5c0-0.2,0-0.4,0-0.7c0-0.2,0-0.5,0.1-0.7c0-0.2,0.1-0.4,0.2-0.6
		c0.1-0.2,0.2-0.3,0.4-0.4s0.4-0.2,0.7-0.2c0.5,0,0.9,0.2,1.1,0.5c0.2,0.3,0.3,0.7,0.3,1.2V9h2.1V8H63.6z M65.5,19.1h2.1V5h-2.1
		V19.1L65.5,19.1z M76.9,5h-2.2L73,14.8l0,0L71.3,5h-2.2L72,19.1h1.8L76.9,5L76.9,5z"/>
	<polygon class="st3" points="78.9,19.1 85,19.1 85,17.1 81,17.1 81,12.9 84.5,12.9 84.5,11 81,11 81,6.9 85,6.9 85,5 78.9,5 	"/>
</g>
</svg>
